---
http_interactions:
- request:
    method: get
    uri: https://core.edools.com/students.json
    body:
      encoding: US-ASCII
      string: ''
    headers:
      Accept:
      - application/vnd.edools.core.v1+json
      Authorization:
      - Token token=84cc0400cd52f62f2e12309b502889ab:2fee1e06d56ab6394ab9acd4c6a8c62f
      Accept-Encoding:
      - gzip;q=1.0,deflate;q=0.6,identity;q=0.3
      User-Agent:
      - Ruby
  response:
    status:
      code: 200
      message: OK
    headers:
      Cache-Control:
      - max-age=0, private, must-revalidate
      Content-Security-Policy-Report-Only:
      - default-src https://* 'self'; connect-src https://* 'self'; font-src https://*
        'self'; frame-src https://* 'self'; img-src https://* 'self' data:; media-src
        https://* 'self'; object-src https://* 'self'; script-src https://* 'self';
        style-src https://* 'self'; report-uri https://core.edools.com/uri-directive;
      Content-Type:
      - application/json; charset=utf-8
      Date:
      - Tue, 29 Jul 2014 12:38:40 GMT
      Etag:
      - '"a589be13508d6857aa09f014b0e8f677"'
      Server:
      - nginx/1.4.7
      Status:
      - 200 OK
      Strict-Transport-Security:
      - max-age=631152000; includeSubdomains
      X-Content-Type-Options:
      - nosniff
      X-Frame-Options:
      - DENY
      X-Request-Id:
      - 112ad436-66ee-4eed-a126-2708fe3f2d8c
      X-Runtime:
      - '0.593398'
      X-Xss-Protection:
      - 1; mode=block
      Content-Length:
      - '4678'
      Connection:
      - keep-alive
    body:
      encoding: UTF-8
      string: '{"students":[{"id":1024,"first_name":"Denise","last_name":"Steiner","email":"denisesteiner@mail.com","cpf":null,"phone":null,"skype":null,"twitter":null,"facebook":null,"company_name":null,"company_position":null,"born_at":null,"biography":null,"cover_image_url":"http://infinite-woodland-5276.herokuapp.com/assets/demo/avatars/5.jpg","invitation_token":null,"registrations":[{"id":72,"code":"20140625164249158","school_id":224,"status":"Trial","enrollments":[{"id":1035,"unlimited":true,"available_until":null,"school_class":{"id":151,"code":null,"school_product":{"id":156,"title":"New
        course"}}},{"id":1033,"unlimited":true,"available_until":null,"school_class":{"id":151,"code":null,"school_product":{"id":156,"title":"New
        course"}}}]}]},{"id":1023,"first_name":"Denise","last_name":"Steiner","email":"denisesteiner@email.com","cpf":null,"phone":null,"skype":null,"twitter":null,"facebook":null,"company_name":null,"company_position":null,"born_at":null,"biography":null,"cover_image_url":"https://cdn.edools.com/assets/images/users/default.jpeg","invitation_token":null,"registrations":[{"id":71,"code":"20140625163503552","school_id":224,"status":"Trial","enrollments":[]}]},{"id":1628,"first_name":"Vinicius","last_name":null,"email":"vinicius@edools.com","cpf":null,"phone":null,"skype":null,"twitter":null,"facebook":null,"company_name":null,"company_position":null,"born_at":null,"biography":null,"cover_image_url":"https://cdn.edools.com/assets/images/users/default.jpeg","invitation_token":null,"registrations":[{"id":486,"code":"20140722122412235","school_id":224,"status":"Ativo","enrollments":[]}]},{"id":1246,"first_name":"Diogo","last_name":"","email":"diogo.beda@gmail.com","cpf":null,"phone":null,"skype":null,"twitter":null,"facebook":null,"company_name":null,"company_position":null,"born_at":null,"biography":null,"cover_image_url":"https://cdn.edools.com/assets/images/users/default.jpeg","invitation_token":null,"registrations":[{"id":133,"code":"20140717200254378","school_id":224,"status":"Trial","enrollments":[]}]},{"id":1636,"first_name":"Teste","last_name":null,"email":"teste123@edools.com","cpf":null,"phone":null,"skype":null,"twitter":null,"facebook":null,"company_name":null,"company_position":null,"born_at":null,"biography":null,"cover_image_url":"https://cdn.edools.com/assets/images/users/default.jpeg","invitation_token":null,"registrations":[{"id":495,"code":"20140725190116088","school_id":224,"status":"Trial","enrollments":[]}]},{"id":1637,"first_name":"Teste","last_name":null,"email":"teste1@edools.com","cpf":null,"phone":null,"skype":null,"twitter":null,"facebook":null,"company_name":null,"company_position":null,"born_at":null,"biography":null,"cover_image_url":"https://cdn.edools.com/assets/images/users/default.jpeg","invitation_token":null,"registrations":[{"id":496,"code":"20140725202653238","school_id":224,"status":"Trial","enrollments":[]}]},{"id":1671,"first_name":"Teste","last_name":null,"email":"teste6@edools.com","cpf":null,"phone":null,"skype":null,"twitter":null,"facebook":null,"company_name":null,"company_position":null,"born_at":null,"biography":null,"cover_image_url":"https://cdn.edools.com/assets/images/users/default.jpeg","invitation_token":null,"registrations":[{"id":503,"code":"20140729123233878","school_id":224,"status":"Trial","enrollments":[]}]},{"id":1658,"first_name":"Teste","last_name":null,"email":"teste2@edools.com","cpf":null,"phone":null,"skype":null,"twitter":null,"facebook":null,"company_name":null,"company_position":null,"born_at":null,"biography":null,"cover_image_url":"https://cdn.edools.com/assets/images/users/default.jpeg","invitation_token":null,"registrations":[{"id":498,"code":"20140728175322950","school_id":224,"status":"Trial","enrollments":[]}]},{"id":1668,"first_name":"Teste","last_name":null,"email":"teste3@edools.com","cpf":null,"phone":null,"skype":null,"twitter":null,"facebook":null,"company_name":null,"company_position":null,"born_at":null,"biography":null,"cover_image_url":"https://cdn.edools.com/assets/images/users/default.jpeg","invitation_token":null,"registrations":[{"id":500,"code":"20140729041857904","school_id":224,"status":"Trial","enrollments":[]}]},{"id":1669,"first_name":"Teste","last_name":null,"email":"teste4@edools.com","cpf":null,"phone":null,"skype":null,"twitter":null,"facebook":null,"company_name":null,"company_position":null,"born_at":null,"biography":null,"cover_image_url":"https://cdn.edools.com/assets/images/users/default.jpeg","invitation_token":null,"registrations":[{"id":501,"code":"20140729042807382","school_id":224,"status":"Trial","enrollments":[]}]}],"current_page":1,"per_page":10,"total_pages":2,"total_count":12}'
    http_version: 
  recorded_at: Tue, 29 Jul 2014 12:38:40 GMT
recorded_with: VCR 2.9.2
